{
  "packageId": "ml.deso_app.app",
  "host": "app.deso-app.ml",
  "name": "deso",
  "launcherName": "deso",
  "display": "fullscreen",
  "themeColor": "#182026",
  "navigationColor": "#000000",
  "navigationColorDark": "#000000",
  "navigationDividerColor": "#000000",
  "navigationDividerColorDark": "#000000",
  "backgroundColor": "#FFFFFF",
  "enableNotifications": true,
  "startUrl": "/",
  "iconUrl": "https://app.deso-app.ml/assets/bitclout/logo-512.png",
  "maskableIconUrl": "https://app.deso-app.ml/assets/bitclout/logo-512.png",
  "splashScreenFadeOutDuration": 300,
  "appVersionName": "1",
  "appVersionCode": 1,
  "shortcuts": [],
  "generatorApp": "bubblewrap-cli",
  "webManifestUrl": "https://app.deso-app.ml/assets/app.webmanifest",
  "fallbackType": "customtabs",
  "features": {},
  "alphaDependencies": {
    "enabled": false
  },
  "enableSiteSettingsShortcut": true,
  "isChromeOSOnly": false,
  "isMetaQuest": false,
  "fullScopeUrl": "https://app.deso-app.ml/",
  "minSdkVersion": 19,
  "orientation": "default",
  "fingerprints": [],
  "additionalTrustedOrigins": [],
  "retainedBundles": [],
  "appVersion": "1"
}